{
  "session": {
    "active_user_id": 1,
    "active_list_id": 1,
    "active_list-item-id": 1,
    "active_friend-id":  1,
    "active-tab": 1
  },
  "users": {
    "active_id": 1,
    "db": [
      {
        "Name": "Pepe",
        "id": 1,
        "password_yolo": "asdlsakl",
        "lists_own-id": [???
          1231390,
          "abs"
        ],
        "lists_invited-id": [???
          123218980,
          "abc"
        ],
        "friends_id": [
          2123123,
          "asdnasd"
        ]
      },
      {
        "Name": "José"
      }
    ]
  },
  "lists": [
    {
      "Name": "Pepe's Birthday",
      "id": 2,
      "owner_id": 1,
      "elements": [
        {
          "Name": "X_box",
          "Price": "$400",
          "url": "www.amazon.com"
        }
      ],
      "invited_id": [???

      ]
    }
  ]
}